{
  "vouchers": [
    {
      "ref": "EBG-NGEN-0049459",
      "resellerCode": "EBG",
      "status": "STATUS_REDEEMED",
      "travelDate": "2017-10-13T12:48:38Z",
      "travelers": [
        {
          "travelerType": "Senior"
        }
      ]
    }
  ]
}
